-----BEGIN PGP SIGNATURE-----

iQIzBAABCAAdFiEEwv5L0nHBObhsUz5GHpU+J9QxHlgFAl8SyEEACgkQHpU+J9Qx
HlgTaA//RSdGeVcSAH3Mh+/1b8HbOrqlLUh9NioZK0S1qVkaDQrMtSmUVA38yuJh
u49bRS+ym325a2vi/S9oLpOoLyvyqQP1Gcz+Ayovs37BK4Q465rB1Rbic5HrE42X
OvUG3ts95ZKxfwWOcbLiUTbMWkpzS5Pv0xd4akEaUSsEpYlshN//C6rcQe6hBKt9
2QCaRTggtD0Xp9C9AA7cO3oHuA79kUOZ8HhdqiJUNyfkGY99d5BZHwgH8hteo2xU
VL+ubUvRaa21sb3krD6N6b7NsZKab2cXVcVhl53TxfyKAGdcER0npXj+ldle+sKF
G7irdFSiZ91sk5oGwNTSYJ8SCZ705k7sugnHtzGQOdnl7+shnq5nUtQamzzn3obV
+JDR7/DHfLTACnMHOBTXRFREkRDsUBJLnzFNM/bRMAs3m9nzTtOL5FKGYa9Me9GR
//1u/onyDqLKn+okfrgVzDVyZvC/LVnWvsIpHEW/7rxRJCs6ErQYeS++RD/dbmgK
S0iVuh5Rl4KHW/xRRTiaWus/Y/5KwWoSrGxQfhVpyCwXb8N5hKyT6NjxK10GNg+f
Yie37ZFYYPNYKvLa5KWTgOfyxBGGny5K3gI+SYrf5UT55DEnoiqCbuDXJWhRDp5m
KI3E5lBV3NHf/J2iQ9GUyzbxdN4Ga7AoVDMCmTwNu2+pZFaY9cw=
=Z7tX
-----END PGP SIGNATURE-----
