-----BEGIN PGP SIGNATURE-----

iQIzBAABCAAdFiEEwv5L0nHBObhsUz5GHpU+J9QxHlgFAmGE7+4ACgkQHpU+J9Qx
HlhkwxAAoO5Unw7lnwIoAE6lBkNhkx/neI9h+SgVtfB7+7fHmnDoG4N0JbAMMHmF
+oIgIh8ovzGhY0VM+p045zBKYa4uuBbyBH0pn5lfnALGR1JAOZKLzo6EHcAvid8k
t1n8e/Sd/zrH/BkbQYOR8lX2Z1yt81t9htz6t4vs5V6IiIsha2Xiw0FV7niXLFlO
LVkTE1oHKEgssovgd1d0JJlv5DC4BadbkURUSoWw/tWdmYNk1Dm3F7ESgyXB+Xu5
p/6uxIeECthgemNOasIgoQju9RiIquRWY4M8mQ1CfyD8LuF5n8ucYP5OEoo07oZM
yJV+EzEs1UUKV3k4ORZpppJkfjNdlxdXHqQpkjbmt3tbn75pHDDuP7jgOn6QrJUW
VYnF9au60nZiDmUhF/nSO7B/IKRpYojpX/iqiOGZ3kW+l+F+Qv9vF2uXWN9puy4T
/ZCVqY4PIHau3/q4I9uAsaHrpPMDn8WcBDe66zCxkx2KHCKJ113xzPiKOz2Pnkbc
GoGx+eFmlidC5TZFBzjxYVrfyJV87gwAcDFEW88uSbRe9Wo02bY1JFhTHbVWVdt4
q2qZv0OedJvgWo1jxUPoaL2pLmj2PJHd313qJOGFSfLgsy3IrCIl68OjcXKwLhEa
yFfBj3MJ2lN/1CyIXttnQhNGGF0GbVuA62DCsOU6vNs/WaQzm0o=
=jJIy
-----END PGP SIGNATURE-----
